{
	"name": "prefecturelist",
	"list": [{
			"name": "Mie",
			"code": 24,
			"population": 178
		},
		{
			"name": "Shiga",
			"code": 25,
			"population": 141
		},
		{
			"name": "Kyoto",
			"code": 26,
			"population": 147
		}
	]
}